<svg width="30" height="31" viewBox="0 0 30 31" fill="none" xmlns="http://www.w3.org/2000/svg">
<path opacity="0.9" fill-rule="evenodd" clip-rule="evenodd" d="M29.872 15.3611C29.872 7.10432 23.1849 0.411163 14.936 0.411163C6.6871 0.411163 0 7.10432 0 15.3611C0 23.6179 6.6871 30.3103 14.936 30.3103C23.1849 30.3103 29.872 23.6179 29.872 15.3611ZM12.8412 23.4734H16.333V15.3633H18.6632L18.972 12.5696H16.333L16.337 11.1712C16.337 10.4422 16.4088 10.0512 17.4987 10.0512H18.9546V7.25673H16.6238C13.8267 7.25673 12.8412 8.61331 12.8412 10.8923V12.5696H11.0962V15.3633H12.8412V23.4734Z" fill="#181818"/>
</svg>
