<svg width="1171" height="605" viewBox="0 0 1171 605" fill="none" xmlns="http://www.w3.org/2000/svg">
<g clip-path="url(#clip0)">
<rect x="124" width="946" height="541" fill="white"/>
<path d="M124 0H1071V541H124V0Z" fill="#E5E5E5"/>
<path d="M124.5 0.5H1070.5V540.5H124.5V0.5Z" stroke="black" stroke-opacity="0.3"/>
</g>
<g clip-path="url(#clip1)">
<path d="M143.752 402.667C146.082 401.38 144.626 399.304 143.794 397.395C142.962 395.485 141.756 392.828 140.383 389.922C137.804 390.836 134.976 390.794 132.355 390.005C134.518 394.074 136.431 397.644 136.764 398.266C137.471 399.553 138.095 401.089 139.052 402.21C140.217 403.622 142.213 403.497 143.752 402.667Z" fill="#78ADD9"/>
<path d="M94.0046 576.024C92.8399 576.315 93.2143 575.983 92.3408 576.938C92.216 577.062 92.1328 577.228 92.0912 577.436C91.4257 577.477 90.8434 577.975 90.9681 578.806C91.9248 585.572 91.9248 592.422 93.0895 599.147C93.2559 600.019 93.963 600.6 94.8365 600.309C96.4587 599.811 95.9595 599.811 97.457 599.064C97.8729 598.856 98.3721 596.158 98.3305 595.743C98.0809 592.297 96.8746 580.674 96.2923 577.228C96.2091 576.273 94.8781 575.775 94.0046 576.024Z" fill="#F79884"/>
<path d="M98.8712 594.331C97.249 594.082 93.6718 594.041 91.8833 593.958C91.093 593.999 90.8018 594.497 90.8434 594.746C91.0514 596.781 89.1796 596.573 86.6423 597.735C84.4794 598.732 82.3996 599.562 78.9888 600.434C75.9524 601.222 76.2852 600.724 76.1604 602.675C76.0772 604.045 79.1968 603.962 81.7341 603.879C82.1501 603.879 82.5244 603.879 82.9404 603.879C84.1466 603.879 85.3113 603.672 86.4343 603.298C86.6423 603.215 86.8503 603.173 87.0583 603.09C88.93 602.468 90.6354 602.343 92.632 602.426C92.7152 602.426 92.8399 602.509 92.8399 602.592C92.8815 602.8 92.8815 602.924 92.8815 603.132C92.9231 603.506 93.2143 603.796 93.5887 603.796C94.4206 603.796 95.2109 603.796 96.0428 603.755C97.5818 603.713 99.0376 603.755 99.2872 603.381C99.5783 602.966 99.4535 602.883 99.4535 602.426C99.4951 601.264 99.4535 594.414 98.8712 594.331Z" fill="#1F2144"/>
<path d="M86.5175 597.86C86.3927 597.611 86.0599 597.818 86.1431 598.067C86.3927 598.648 86.6423 599.188 86.9334 599.728C87.0582 599.977 87.4326 599.769 87.3078 599.52C87.0166 598.939 86.7671 598.399 86.5175 597.86ZM88.3061 597.029C88.1397 596.822 87.8069 597.029 87.9317 597.237C88.3061 597.777 88.6388 598.316 88.93 598.856C89.0548 599.105 89.4291 598.897 89.3043 598.648C89.0132 598.067 88.6804 597.528 88.3061 597.029ZM91.7168 597.569C91.2177 597.154 90.7186 596.78 90.1778 596.448C89.9699 596.324 89.6787 596.614 89.9283 596.78C90.469 597.112 91.0097 597.486 91.4673 597.901C91.6752 598.067 91.9248 597.735 91.7168 597.569Z" fill="#464A8A"/>
<path d="M99.4536 602.468C99.4536 602.136 99.412 601.72 99.3704 601.305C97.457 601.679 95.5436 601.596 93.6303 601.513C91.7169 601.471 89.8867 601.554 88.0149 601.928C84.0634 602.634 80.1535 603.049 76.1604 602.758C76.1604 602.924 76.1604 603.132 76.1604 603.422C76.1188 604.792 79.2384 604.585 81.7757 604.46C82.1917 604.46 82.566 604.419 82.982 604.419C84.1882 604.377 85.3529 604.128 86.4759 603.755C86.6839 603.672 86.8919 603.589 87.0999 603.547C88.9716 602.883 90.6354 602.675 92.632 602.717C92.7152 602.717 92.84 602.8 92.8816 602.883C92.9231 603.09 92.9231 603.215 92.9647 603.422C93.0063 603.796 93.3391 604.045 93.7135 604.045C94.5454 604.004 95.3357 604.004 96.1676 603.962C97.7066 603.879 99.1624 603.879 99.412 603.464C99.5783 602.966 99.4952 602.883 99.4536 602.468Z" fill="#464A8A"/>
<path d="M107.398 566.019C107.149 562.948 105.942 560.249 104.986 557.343C101.159 545.637 110.809 532.436 108.022 520.521C106.566 514.212 107.939 509.23 107.648 502.671C107.398 496.153 108.896 489.761 110.351 483.492C112.847 472.616 115.218 460.286 108.521 450.323C105.568 445.923 101.117 442.768 95.7931 442.145C90.469 441.523 85.228 443.308 80.9437 446.338C80.3614 445.757 79.1136 446.006 79.1552 447.044C79.9871 466.389 80.8605 485.734 81.6924 505.079C82.1084 514.627 82.4412 524.175 83.2315 533.723C83.9802 543.021 85.1448 552.237 86.2679 561.495C87.5573 572.122 88.8884 582.749 90.1778 593.376C90.261 593.958 90.5938 594.373 91.2177 594.414C98.3304 594.788 98.3304 594.995 105.402 594.331C106.026 594.29 106.358 593.916 106.441 593.293C106.774 590.18 106.026 587.232 105.734 584.202C105.36 580.84 105.984 577.56 106.608 574.239C107.107 571.541 107.606 568.801 107.398 566.019Z" fill="#1F2144"/>
<path d="M62.3924 576.813C61.2278 576.605 61.6853 576.439 60.5206 576.937C60.3543 577.021 60.1879 577.145 60.0631 577.27C59.4392 577.062 58.7321 577.228 58.4825 578.017C56.4443 584.534 53.5743 590.761 51.7857 597.362C51.5777 598.192 51.9521 599.022 52.8672 599.188C54.5726 599.437 54.0734 599.188 55.7788 599.147C56.2364 599.147 57.817 596.905 57.9834 596.532C59.2312 593.294 63.0579 582.251 64.0146 578.889C64.2642 577.975 63.3075 576.979 62.3924 576.813Z" fill="#F79884"/>
<path d="M58.6489 594.829C57.0267 594.58 53.4495 594.539 51.6609 594.456C50.8706 594.497 50.5794 594.995 50.621 595.244C50.829 597.279 48.9572 597.071 46.42 598.233C44.257 599.23 42.1773 600.06 38.7665 600.932C35.7301 601.72 36.0628 601.222 35.938 603.173C35.8548 604.543 38.9745 604.46 41.5118 604.377C41.9277 604.377 42.3021 604.377 42.718 604.377C43.9243 604.377 45.0889 604.17 46.212 603.796C46.42 603.713 46.6279 603.672 46.8359 603.589C48.7077 602.966 50.4131 602.841 52.4096 602.924C52.4928 602.924 52.6176 603.007 52.6176 603.09C52.6592 603.298 52.6592 603.422 52.6592 603.63C52.7008 604.004 52.992 604.294 53.3663 604.294C54.1982 604.294 54.9885 604.294 55.8204 604.253C57.3594 604.211 58.8152 604.253 59.0648 603.879C59.356 603.464 59.2312 603.381 59.2312 602.924C59.2728 601.762 59.2312 594.912 58.6489 594.829Z" fill="#1F2144"/>
<path d="M46.2536 598.316C46.1288 598.067 45.796 598.275 45.8792 598.524C46.1288 599.105 46.3783 599.645 46.6695 600.184C46.7943 600.433 47.1687 600.226 47.0439 599.977C46.7943 599.437 46.5031 598.897 46.2536 598.316ZM48.0837 597.486C47.9174 597.278 47.5846 597.486 47.7094 597.693C48.0837 598.233 48.4165 598.773 48.7077 599.312C48.8325 599.562 49.2068 599.354 49.082 599.105C48.7909 598.565 48.4581 598.026 48.0837 597.486ZM51.4529 598.067C50.9538 597.652 50.4547 597.278 49.9139 596.946C49.7059 596.822 49.4148 597.112 49.6644 597.278C50.2051 597.61 50.7458 597.984 51.2034 598.399C51.4113 598.565 51.6609 598.233 51.4529 598.067Z" fill="#464A8A"/>
<path d="M59.2312 602.925C59.2312 602.592 59.1896 602.177 59.148 601.762C57.2346 602.136 55.3212 602.053 53.4079 601.97C51.4945 601.928 49.6643 602.011 47.7926 602.385C43.841 603.091 39.9311 603.506 35.938 603.215C35.938 603.381 35.938 603.589 35.938 603.879C35.8964 605.249 39.016 605.042 41.5533 604.917C41.9693 604.917 42.3436 604.876 42.7596 604.876C43.9658 604.834 45.1305 604.585 46.2535 604.211C46.4615 604.128 46.6695 604.045 46.8775 604.004C48.7492 603.34 50.413 603.132 52.4096 603.174C52.4928 603.174 52.6176 603.257 52.6592 603.34C52.7008 603.547 52.7008 603.672 52.7424 603.879C52.784 604.253 53.1167 604.502 53.4911 604.502C54.323 604.461 55.1133 604.461 55.9452 604.419C57.4842 604.336 58.94 604.336 59.1896 603.921C59.356 603.464 59.2312 603.381 59.2312 602.925Z" fill="#464A8A"/>
<path d="M126.074 438.7C123.204 437.164 117.672 444.636 114.469 444.761C110.019 444.927 105.568 445.508 101.159 446.338C101.284 445.965 101.408 445.55 101.492 445.176C101.949 443.64 99.5367 443.1 99.0375 444.636C87.2662 483.534 75.4532 522.473 62.2676 560.914C58.5657 571.665 54.7805 582.417 50.829 593.086C50.5378 593.916 51.4113 594.58 52.1184 594.622C56.4027 594.788 60.6454 594.913 64.9297 595.079C67.7166 595.162 69.3804 591.093 69.8795 589.848C70.4618 588.395 71.2105 587.025 72.084 585.697C73.7894 583.123 75.9524 580.881 78.0321 578.64C82.2748 574.032 86.0183 569.382 87.3078 563.114C88.0565 559.627 88.1813 556.057 88.722 552.528C89.2627 548.916 90.3026 545.512 92.0496 542.274C95.1276 536.421 99.5367 531.356 102.407 525.42C105.651 518.695 106.566 511.057 110.268 504.498C112.098 501.218 130.65 474.608 130.65 464.23C130.65 458.003 132.688 442.229 126.074 438.7Z" fill="#1F2144"/>
<path d="M46.3783 369.664C45.2137 365.471 40.3055 345.338 39.1408 341.145C38.5585 339.069 37.9762 336.952 37.3938 334.876C37.0195 333.507 36.8531 331.182 35.8964 330.102C35.1893 329.355 33.8167 329.48 32.9016 329.397C30.697 329.189 28.4925 328.982 26.288 328.774C21.9621 328.359 17.6778 327.944 13.352 327.57C12.936 327.363 12.2705 327.695 12.4369 328.276C13.6015 332.469 14.8078 336.62 15.9724 340.813C16.5548 342.888 20.839 360.988 21.4214 363.064C21.7957 364.434 21.9621 366.758 22.9188 367.838C23.6259 368.585 24.9985 368.46 25.9136 368.543C28.1182 368.751 30.3227 368.958 32.5272 369.166C36.8531 369.581 41.1374 369.996 45.4633 370.37C45.8792 370.577 46.5031 370.245 46.3783 369.664Z" fill="#F5E4D5"/>
<path d="M30.2395 375.019C29.0748 370.826 27.8686 366.675 26.7039 362.482C26.1216 360.407 25.5393 358.289 24.9569 356.214C24.5826 354.844 24.4162 352.519 23.4595 351.44C22.7524 350.693 21.3798 350.817 20.4647 350.734C18.2602 350.527 16.0556 350.319 13.8511 350.111C9.52522 349.696 5.24094 349.281 0.915065 348.908C0.499115 348.7 -0.166404 349.032 -2.3989e-05 349.613C1.16463 353.806 2.37089 357.957 3.53555 362.15C4.11788 364.226 4.70021 366.343 5.28253 368.419C5.65689 369.788 5.82327 372.113 6.77995 373.192C7.48707 373.94 8.8597 373.815 9.77479 373.898C11.9793 374.106 14.1839 374.313 16.3884 374.521C20.7143 374.936 24.9985 375.351 29.3244 375.725C29.782 375.932 30.4059 375.6 30.2395 375.019Z" fill="#78ADD9"/>
<path d="M18.5929 347.455C14.9742 344.549 11.2722 341.768 7.48707 339.111C7.36229 339.028 7.11272 339.028 6.98793 339.194C4.24267 342.224 1.95494 345.545 0.0415769 349.157C-0.207993 349.613 0.582311 351.025 0.873476 350.693C2.66206 351.689 4.03469 352.063 5.90646 352.934C7.48707 353.557 9.15087 353.848 10.8147 354.055C13.2272 354.387 15.6397 354.512 18.0522 354.47C19.4664 354.47 22.5444 355.508 23.7091 354.47C26.2464 352.229 20.0072 348.576 18.5929 347.455Z" fill="#78ADD9"/>
<path d="M57.1515 354.678C56.8187 354.471 56.3612 354.595 56.1532 354.927L51.8689 362.316L50.0803 359.992C49.8308 359.66 49.3732 359.618 49.0405 359.867C48.7077 360.116 48.6661 360.573 48.9157 360.905L51.3698 364.102C51.6194 364.434 52.0769 364.475 52.4097 364.226C52.5344 364.143 52.6176 363.977 52.6592 363.852L57.4011 355.674C57.6506 355.342 57.5258 354.886 57.1515 354.678Z" fill="#78ADD9"/>
<path d="M93.963 472.616C91.2177 480.296 88.0981 487.851 84.6458 495.24C84.521 495.489 84.8953 495.697 85.0201 495.448C88.5141 488.017 91.6337 480.462 94.379 472.74C94.4622 472.491 94.0462 472.367 93.963 472.616Z" fill="#464A8A"/>
<path d="M126.948 454.433C126.532 456.509 125.95 458.501 125.242 460.494C122.414 460.369 119.378 459.996 116.965 458.377C114.22 456.55 113.18 453.52 112.348 450.489C112.265 450.24 111.89 450.323 111.932 450.614C112.764 453.644 113.804 456.716 116.466 458.584C118.962 460.328 122.081 460.785 125.076 460.909C123.121 466.389 120.334 471.536 117.464 476.601C113.18 484.239 108.854 491.836 104.528 499.475C102.074 503.792 99.6615 508.109 97.2074 512.426C97.0826 512.676 97.4154 512.883 97.5818 512.634C101.991 504.83 106.4 497.067 110.809 489.262C114.968 481.915 119.419 474.691 122.996 467.053C124.868 463.068 126.449 458.917 127.322 454.558C127.405 454.309 127.031 454.184 126.948 454.433Z" fill="#464A8A"/>
<path d="M106.441 512.136C101.284 515.913 100.577 522.638 99.8695 528.492C99.4119 532.145 98.7464 535.756 96.9578 539.036C95.4604 541.734 93.547 544.142 91.8001 546.674C89.9283 549.373 88.2645 552.237 87.7237 555.517C87.6821 555.766 88.0981 555.89 88.1397 555.641C89.138 549.705 93.6302 545.387 96.6667 540.447C98.3305 537.749 99.3287 534.843 99.8695 531.73C100.452 528.367 100.618 524.963 101.367 521.642C102.199 518.114 103.738 514.668 106.691 512.468C106.857 512.343 106.649 511.97 106.441 512.136Z" fill="#464A8A"/>
<path d="M94.8365 520.148C93.5887 518.985 92.3408 517.781 91.093 516.619C90.885 516.453 90.5939 516.744 90.8018 516.91C92.0497 518.072 93.2975 519.276 94.5454 520.438C94.7118 520.646 95.0029 520.355 94.8365 520.148Z" fill="#464A8A"/>
<path d="M94.171 523.677C93.1311 522.431 92.0496 521.227 90.9266 520.107C90.7186 519.899 90.4274 520.231 90.6354 520.397C91.8 521.518 92.8815 522.722 93.8798 523.967C94.0462 524.175 94.3373 523.884 94.171 523.677Z" fill="#464A8A"/>
<path d="M89.7203 529.986C85.4776 542.399 80.1951 554.479 73.9142 566.019C72.1257 569.257 70.2955 572.454 68.3405 575.609C68.2157 575.858 68.5485 576.066 68.7149 575.816C75.5364 564.65 81.4429 552.86 86.2679 540.697C87.6406 537.21 88.93 533.639 90.1779 530.111C90.2195 529.862 89.8035 529.737 89.7203 529.986Z" fill="#464A8A"/>
<path d="M120.709 331.431C116.05 328.151 108.854 326.823 103.155 328.857C103.072 329.106 102.906 329.314 102.656 329.521C100.618 331.099 101.45 331.68 99.6199 333.507C99.3703 333.756 99.0791 333.88 98.7464 333.88C97.2906 339.028 97.0826 346.417 98.8296 352.81C99.4951 355.218 101.159 361.403 103.738 363.603C107.315 366.717 112.223 365.804 115.468 363.271C121.291 358.705 124.91 352.976 125.534 345.545C126.116 338.737 126.449 335.458 120.709 331.431Z" fill="#F79884"/>
<path d="M124.286 366.965L121.624 345.42C121.457 344.632 119.17 347.994 118.587 348.617C115.634 351.813 113.013 353.142 108.979 354.429C108.854 354.47 108.771 354.512 108.646 354.595C108.064 354.719 107.565 355.217 107.689 355.965C108.688 360.739 110.143 369.913 112.182 374.355C112.722 375.517 112.598 373.607 114.012 373.898C114.968 374.106 116.507 373.607 117.464 373.483C118.67 373.317 118.546 373.234 119.752 373.068C121.083 372.902 123.87 373.151 124.743 371.864C125.658 370.66 124.535 368.211 124.286 366.965Z" fill="#F79884"/>
<path d="M112.764 348.658C112.847 349.406 112.556 350.07 112.098 350.153C111.641 350.194 111.183 349.613 111.1 348.866C111.017 348.119 111.308 347.455 111.766 347.372C112.223 347.289 112.639 347.87 112.764 348.658Z" fill="#1F2144"/>
<path d="M102.157 348.617C102.24 349.364 101.949 350.028 101.492 350.111C101.034 350.153 100.577 349.572 100.493 348.824C100.41 348.077 100.701 347.413 101.159 347.33C101.658 347.288 102.074 347.87 102.157 348.617Z" fill="#1F2144"/>
<path d="M115.052 344.84C115.01 344.798 114.636 344.632 114.594 344.632C113.305 344.217 111.599 343.926 110.393 344.591C109.769 344.923 109.187 345.753 110.102 346.085C110.851 346.376 111.974 346.293 112.764 346.251C113.429 346.251 114.22 346.334 114.802 346.002C115.551 345.628 115.551 345.213 115.052 344.84Z" fill="#1F2144"/>
<path d="M98.3305 346.126C98.9128 346.458 99.7031 346.375 100.369 346.417C101.159 346.458 102.24 346.541 103.031 346.292C103.946 345.96 103.363 345.171 102.781 344.798C101.616 344.092 99.8695 344.383 98.5801 344.756C98.5801 344.756 98.1641 344.922 98.1225 344.964C97.6234 345.296 97.6234 345.711 98.3305 346.126Z" fill="#1F2144"/>
<path d="M107.481 355.425C106.525 355.467 105.402 355.425 105.069 354.346C104.819 353.557 105.11 352.685 105.194 351.896C105.443 350.319 105.693 348.7 105.942 347.122C105.984 346.873 105.568 346.749 105.526 346.998L104.944 350.776C104.778 351.772 104.528 352.81 104.57 353.806C104.653 355.508 105.984 355.882 107.481 355.84C107.773 355.84 107.773 355.425 107.481 355.425Z" fill="#DB745E"/>
<path d="M111.807 356.961C107.897 358.58 104.237 357.044 104.029 357.127C103.946 357.169 103.863 357.252 103.863 357.335C104.279 359.037 106.275 359.909 107.814 359.95C109.395 359.95 111.599 358.912 112.057 357.252C112.14 357.086 111.974 356.878 111.807 356.961Z" fill="white"/>
<path d="M129.818 337.367C129.61 335.001 128.986 332.593 127.364 330.767C125.617 328.816 123.204 327.819 120.75 327.155C118.296 324.83 114.22 323.709 111.017 324.042C107.648 324.415 104.528 325.868 101.783 327.736C100.036 328.899 97.8313 330.227 96.9162 332.22C96.8746 332.261 96.8747 332.303 96.8331 332.344C95.3356 335.167 95.7932 338.779 97.1242 341.145C97.249 341.352 97.3322 341.518 97.5402 341.56C97.7481 341.601 97.9561 341.601 98.1225 341.435C99.7447 339.982 102.199 341.228 104.237 340.647C105.443 340.315 106.525 339.941 107.773 339.941C108.812 339.941 109.769 340.232 110.809 340.148C114.053 339.858 116.341 337.367 117.173 334.42C117.131 335.416 117.048 336.412 116.923 337.409C116.799 338.571 117.464 341.726 118.046 342.805C119.336 345.089 122.206 344.009 122.123 349.157C122.081 351.897 121.291 353.848 121.873 355.55C121.956 355.84 122.331 355.965 122.58 355.716C124.078 354.263 125.201 352.312 126.157 350.278C127.364 348.908 128.154 346.915 128.736 345.421C129.693 342.847 130.067 340.065 129.818 337.367Z" fill="#1F2144"/>
<path d="M116.008 343.179C115.759 343.179 115.759 343.594 116.008 343.594C116.799 343.594 116.923 344.341 116.882 345.005C116.84 345.628 116.591 346.085 116.008 346.375C115.759 346.5 115.967 346.873 116.216 346.749C117.09 346.292 117.298 345.462 117.298 344.549C117.298 343.76 116.84 343.179 116.008 343.179Z" fill="#DB745E"/>
<path d="M107.606 372.778C108.729 374.687 109.603 377.053 110.143 379.544C114.178 378.506 118.254 377.676 122.248 376.555C123.995 374.148 126.199 372.155 128.82 370.577C128.944 370.536 129.111 370.453 129.236 370.411C128.82 370.245 128.445 370.121 128.029 369.996C127.988 369.83 126.989 367.09 126.324 365.97C125.95 365.347 125.45 364.101 124.535 364.226C123.995 364.309 123.495 364.641 122.996 364.849C122.248 365.181 121.54 365.471 120.792 365.803C119.461 366.385 118.088 366.883 116.757 367.589C113.388 369.374 113.305 368.958 111.516 368.087C110.892 367.796 110.435 367.589 109.935 368.17C109.312 368.917 108.896 370.079 108.604 371.076C108.064 371.283 107.523 371.491 106.982 371.698C107.19 372.113 107.44 372.446 107.606 372.778Z" fill="#F5E4D5"/>
<path d="M116.258 371.947C115.426 371.117 114.677 370.287 113.845 369.456C113.637 369.207 113.429 369.249 113.346 369.415C112.681 370.411 111.932 371.407 111.391 372.445C111.017 373.109 111.059 373.732 111.391 374.396C111.807 375.268 112.473 376.057 113.138 376.763C113.513 377.178 113.845 377.759 114.428 377.51C115.592 377.053 117.007 374.895 117.215 373.691C117.298 372.943 116.757 372.445 116.258 371.947Z" fill="#1F2144"/>
<path d="M134.518 373.11C132.563 371.74 130.359 370.702 128.071 369.996C128.029 369.83 124.036 372.404 121.665 373.649C118.878 375.144 115.551 375.808 112.473 374.812C110.559 374.189 108.896 373.027 107.731 371.449C99.4951 374.687 93.1727 377.635 88.3892 385.232C80.9853 396.855 81.8172 400.882 78.9472 418.981C77.7825 426.371 74.0806 446.421 74.4549 448.248C74.8293 450.033 75.0373 452.109 75.786 453.728C76.9506 456.26 80.8606 455.596 83.1067 455.388C86.975 455.014 90.7601 454.143 94.5869 453.645C102.324 452.607 120.958 450.905 128.736 450.656C135.308 450.448 133.27 446.587 135.807 439.862C136.057 439.24 139.676 422.759 142.005 408.064C143.877 396.149 145.915 381.08 134.518 373.11Z" fill="#9E4D4D"/>
<path d="M34.7318 380.042C35.0645 386.726 38.101 413.086 38.1426 414.913C38.1842 415.909 37.893 417.154 38.5585 417.985C38.6833 418.151 83.7722 421.14 87.599 421.181C88.5557 421.306 89.2212 421.14 89.1796 420.517C88.2645 408.312 87.391 395.236 86.8919 383.197C86.8919 383.031 86.7671 382.699 86.6839 382.616C86.6007 382.408 86.1431 382.408 85.852 382.367C68.2157 380.914 53.0752 380.084 35.3973 379.502C35.1061 379.461 34.7318 379.71 34.7318 380.042Z" fill="#1F2144"/>
<path d="M60.5623 397.561C57.1099 397.353 56.7355 402.708 60.2295 402.957C63.6819 403.165 64.0562 397.768 60.5623 397.561Z" fill="#797A8A"/>
<path d="M108.064 421.763C108.105 421.389 107.814 421.14 107.481 421.098C95.502 418.981 83.4395 417.57 71.2938 416.864C65.3041 416.532 59.2728 416.366 53.2832 416.407C50.2883 416.407 47.2935 416.49 44.257 416.573C42.926 416.615 41.179 416.407 39.8896 416.74C39.9312 416.532 39.9728 416.324 40.0144 416.158C40.1807 415.37 39.0161 414.954 38.8497 415.743C38.5169 417.238 38.1842 419.106 39.3072 420.351C39.9312 421.057 40.7631 421.223 41.6366 421.347C43.2588 421.555 44.9226 421.68 46.5448 421.846C53.2416 422.51 59.8968 423.049 66.5935 423.548C80.1119 424.502 93.6718 425.084 107.232 425.291C107.565 425.291 107.856 425.042 107.897 424.71C107.939 423.755 107.981 422.759 108.064 421.763Z" fill="#1F2144"/>
<path d="M70.9194 426.537C70.7946 426.329 70.5867 426.122 70.4203 425.956C70.2955 425.79 70.1707 425.623 70.0459 425.457C69.63 423.631 69.7963 421.68 69.7963 419.812C69.7963 418.525 69.9627 415.951 68.5485 415.287C68.4653 415.245 68.2989 415.245 68.2573 415.37C68.0078 415.951 68.0494 416.532 68.0078 417.155C68.0078 418.151 67.9662 419.106 68.0078 420.102C68.0078 420.434 68.0078 420.808 68.0494 421.14C67.675 420.683 67.2591 420.227 66.8847 419.77C66.5935 419.438 66.1776 418.815 65.7616 418.442C64.9297 417.279 64.181 416.076 63.5155 414.83C63.0164 413.875 62.5588 412.879 62.0597 411.883C61.6853 411.094 61.6853 410.222 60.9782 410.139C59.4808 409.973 61.2694 413.875 61.5189 414.415C62.1013 415.909 62.85 417.321 63.6819 418.649C63.5571 418.732 63.4323 418.857 63.3075 418.94C61.7685 417.155 60.7287 415.038 59.7304 412.879C59.5224 412.464 57.817 409.558 57.3595 410.554C56.9851 411.302 57.6506 412.547 57.9002 413.253C58.2745 414.332 58.6905 415.37 59.148 416.366C59.772 417.695 60.5207 418.981 61.311 420.185C61.1862 420.268 61.0614 420.351 60.9782 420.434C59.8552 418.691 58.8985 416.864 57.9418 414.996C57.7754 414.664 55.7373 411.052 55.2381 412.298C55.1549 412.505 57.5674 417.404 59.4808 420.891C59.8967 421.638 59.5224 421.472 59.2728 421.223C59.0233 420.891 56.07 415.743 55.4045 416.076C54.8222 416.366 56.4444 419.978 57.6922 421.472C58.9401 423.008 59.9383 424.627 61.3942 425.956C62.3093 426.827 63.3075 427.658 64.389 428.114C66.0112 428.737 67.7998 428.654 69.422 429.36C69.63 429.443 69.7963 429.318 69.8795 429.194C69.9211 429.152 69.9627 429.152 69.9627 429.069C70.6282 428.156 71.6681 427.907 70.9194 426.537Z" fill="#F79884"/>
<path d="M135.6 392.122C133.977 390.96 131.814 390.379 129.943 389.673C127.489 388.801 125.034 387.971 122.58 387.224C122.123 387.099 121.832 387.473 121.832 387.847C121.499 387.598 120.958 387.639 120.833 388.137C117.464 399.512 113.887 411.384 105.61 420.227C101.741 424.336 96.6666 428.031 90.9681 429.027C84.4377 430.148 78.4897 426.537 73.1655 423.257C72.8743 423.049 72.5 423.215 72.292 423.465C70.1707 426.412 68.3405 429.525 66.7599 432.805C66.5935 433.137 66.6767 433.428 66.9679 433.677C73.4151 438.368 80.9022 441.606 88.8052 442.934C96.5003 444.262 104.694 444.055 111.599 440.07C117.88 436.417 122.622 430.522 126.365 424.419C130.775 417.321 134.144 409.599 136.39 401.546C137.263 398.432 138.802 394.447 135.6 392.122Z" fill="#9E4D4D"/>
<path d="M141.173 400.134C138.22 409.848 133.395 419.064 126.407 426.495C119.378 433.967 110.102 439.239 99.9111 440.858C94.1294 441.772 88.1813 441.439 82.566 439.696C82.3164 439.613 82.1916 440.028 82.4412 440.111C92.3824 443.183 103.239 441.772 112.514 437.288C121.915 432.763 129.36 425.042 134.643 416.158C137.596 411.177 139.884 405.821 141.548 400.259C141.672 400.01 141.256 399.885 141.173 400.134Z" fill="#1F2144"/>
<path d="M129.485 375.31C129.277 375.144 128.986 375.434 129.194 375.6C131.814 377.759 133.478 380.79 133.936 384.152C133.977 384.401 134.393 384.401 134.352 384.152C133.894 380.665 132.189 377.51 129.485 375.31Z" fill="#1F2144"/>
<path d="M133.229 387.058C129.028 388.013 125.825 391.292 123.246 394.53C120.334 398.101 118.005 402.086 115.717 406.071C115.592 406.32 115.925 406.528 116.092 406.279C118.338 402.459 120.584 398.599 123.329 395.112C125.95 391.832 129.111 388.428 133.353 387.473C133.603 387.432 133.478 387.017 133.229 387.058Z" fill="#1F2144"/>
<path d="M110.643 422.717C109.811 421.721 109.02 420.683 108.188 419.687C108.022 419.479 107.731 419.77 107.897 419.977C108.729 420.974 109.519 422.012 110.351 423.008C110.518 423.215 110.809 422.883 110.643 422.717Z" fill="#1F2144"/>
<path d="M107.481 422.136C107.398 421.887 106.982 422.011 107.065 422.261C107.44 423.34 107.689 424.461 107.856 425.582C107.897 425.831 108.313 425.748 108.272 425.457C108.105 424.336 107.856 423.257 107.481 422.136Z" fill="#1F2144"/>
<path d="M95.1277 426.371C91.5505 427.657 87.8069 428.944 83.9802 428.239C83.7306 428.197 83.6059 428.571 83.8554 428.654C87.7654 429.401 91.5921 428.114 95.2525 426.786C95.502 426.661 95.3772 426.288 95.1277 426.371Z" fill="#1F2144"/>
<path d="M0.207975 350.07C8.11102 350.776 16.0557 351.482 23.9587 352.229C23.8755 352.063 23.7923 351.938 23.7091 351.772C15.8061 351.066 7.94464 350.361 0.0415955 349.655C0.0831904 349.78 0.16638 349.946 0.207975 350.07Z" fill="#F5E4D5"/>
</g>
<path d="M1154.55 304.999C1153.76 304.999 1153.15 304.813 1152.73 304.439C1152.3 304.057 1152.09 303.487 1152.09 302.731C1152.09 301.975 1152.3 301.411 1152.73 301.037C1153.15 300.655 1153.76 300.463 1154.55 300.463H1154.93V301.919H1154.45C1154.1 301.919 1153.85 301.989 1153.71 302.129C1153.56 302.26 1153.49 302.447 1153.49 302.689C1153.49 302.932 1153.56 303.123 1153.71 303.263C1153.85 303.394 1154.1 303.459 1154.45 303.459C1154.79 303.459 1155.09 303.385 1155.35 303.235C1155.6 303.086 1155.84 302.899 1156.08 302.675C1156.3 302.451 1156.53 302.213 1156.76 301.961C1156.99 301.7 1157.24 301.457 1157.51 301.233C1157.78 301.009 1158.08 300.823 1158.43 300.673C1158.78 300.524 1159.18 300.449 1159.65 300.449C1160.44 300.449 1161.05 300.645 1161.48 301.037C1161.9 301.42 1162.11 301.989 1162.11 302.745C1162.11 303.501 1161.9 304.075 1161.48 304.467C1161.05 304.85 1160.44 305.041 1159.65 305.041H1158.98V303.585H1159.75C1160.1 303.585 1160.35 303.515 1160.49 303.375C1160.63 303.226 1160.7 303.03 1160.7 302.787C1160.7 302.545 1160.63 302.353 1160.49 302.213C1160.35 302.064 1160.1 301.989 1159.75 301.989C1159.41 301.989 1159.12 302.064 1158.86 302.213C1158.6 302.363 1158.36 302.549 1158.14 302.773C1157.9 302.997 1157.67 303.24 1157.45 303.501C1157.22 303.753 1156.96 303.991 1156.69 304.215C1156.42 304.439 1156.12 304.626 1155.77 304.775C1155.42 304.925 1155.02 304.999 1154.55 304.999ZM1158.35 293.101H1159.65C1160.44 293.101 1161.05 293.297 1161.48 293.689C1161.9 294.072 1162.11 294.641 1162.11 295.397C1162.11 296.153 1161.9 296.727 1161.48 297.119C1161.05 297.502 1160.44 297.693 1159.65 297.693H1154.55C1153.76 297.693 1153.15 297.502 1152.73 297.119C1152.3 296.727 1152.09 296.153 1152.09 295.397C1152.09 294.641 1152.3 294.072 1152.73 293.689C1153.15 293.297 1153.76 293.101 1154.55 293.101H1155.5V294.557H1154.45C1154.1 294.557 1153.85 294.632 1153.71 294.781C1153.56 294.921 1153.49 295.112 1153.49 295.355C1153.49 295.598 1153.56 295.794 1153.71 295.943C1153.85 296.083 1154.1 296.153 1154.45 296.153H1159.75C1160.1 296.153 1160.35 296.083 1160.49 295.943C1160.63 295.794 1160.7 295.598 1160.7 295.355C1160.7 295.112 1160.63 294.921 1160.49 294.781C1160.35 294.632 1160.1 294.557 1159.75 294.557H1158.35V293.101ZM1162 286.947C1161.93 286.965 1161.87 286.984 1161.82 287.003C1161.76 287.021 1161.69 287.04 1161.61 287.059C1161.52 287.068 1161.42 287.077 1161.29 287.087C1161.16 287.087 1160.99 287.087 1160.8 287.087H1159.26C1158.8 287.087 1158.48 287.166 1158.29 287.325C1158.1 287.483 1158.01 287.74 1158.01 288.095V288.627H1162V290.167H1152.2V287.843C1152.2 287.04 1152.39 286.461 1152.76 286.107C1153.13 285.743 1153.7 285.561 1154.45 285.561H1155.22C1156.23 285.561 1156.89 285.897 1157.21 286.569C1157.37 286.177 1157.63 285.911 1158 285.771C1158.35 285.621 1158.78 285.547 1159.3 285.547H1160.81C1161.05 285.547 1161.27 285.537 1161.45 285.519C1161.63 285.5 1161.81 285.453 1162 285.379V286.947ZM1153.6 288.627H1156.61V288.025C1156.61 287.735 1156.54 287.511 1156.39 287.353C1156.24 287.185 1155.97 287.101 1155.57 287.101H1154.61C1154.25 287.101 1154 287.166 1153.84 287.297C1153.68 287.418 1153.6 287.614 1153.6 287.885V288.627ZM1159.75 281.12C1160.1 281.12 1160.35 281.05 1160.5 280.91C1160.64 280.76 1160.71 280.564 1160.71 280.322C1160.71 280.079 1160.64 279.888 1160.5 279.748C1160.35 279.598 1160.1 279.524 1159.75 279.524H1154.45C1154.1 279.524 1153.85 279.598 1153.71 279.748C1153.56 279.888 1153.49 280.079 1153.49 280.322C1153.49 280.564 1153.56 280.76 1153.71 280.91C1153.85 281.05 1154.1 281.12 1154.45 281.12H1159.75ZM1154.55 282.66C1153.76 282.66 1153.15 282.459 1152.73 282.058C1152.3 281.656 1152.09 281.078 1152.09 280.322C1152.09 279.566 1152.3 278.987 1152.73 278.586C1153.15 278.184 1153.76 277.984 1154.55 277.984H1159.65C1160.44 277.984 1161.05 278.184 1161.48 278.586C1161.9 278.987 1162.11 279.566 1162.11 280.322C1162.11 281.078 1161.9 281.656 1161.48 282.058C1161.05 282.459 1160.44 282.66 1159.65 282.66H1154.55ZM1152.2 274.983V273.443H1160.6V270.909H1162V274.983H1152.2ZM1152.2 268.211V266.671H1160.6V264.137H1162V268.211H1152.2Z" fill="#181818"/>
<path d="M1166.65 541.354C1166.84 541.549 1167.16 541.549 1167.35 541.354L1170.54 538.172C1170.73 537.976 1170.73 537.66 1170.54 537.464C1170.34 537.269 1170.02 537.269 1169.83 537.464L1167 540.293L1164.17 537.464C1163.98 537.269 1163.66 537.269 1163.46 537.464C1163.27 537.66 1163.27 537.976 1163.46 538.172L1166.65 541.354ZM1166.5 261L1166.5 541L1167.5 541L1167.5 261L1166.5 261Z" fill="#181818"/>
<defs>
<clipPath id="clip0">
<rect x="124" width="946" height="541" fill="white"/>
</clipPath>
<clipPath id="clip1">
<rect y="324" width="145" height="281" fill="white"/>
</clipPath>
</defs>
</svg>
